…
  facility_lng = col_double(),
  facility_lat = col_double(),
  latest_inmate_population = col_double(),
  max_inmate_population_2020 = col_double(),
  total_inmate_cases = col_double(),
  total_inmate_deaths = col_double(),
  total_officer_cases = col_double(),
  total_officer_deaths = col_double(),
  note = col_character()
)
```
```r
fac

# A tibble: 2,639 x 16
   nyt_id  facility_name           facility_type   facility_city facility_county
   <chr>   <chr>                   <chr>           <chr>         <chr>          
 1 F3EFE8… Alex City Work Release… Low-security w… Alex City     Coosa          
 2 5B9102… Alabama Therapeutic Ed… State rehabili… Columbiana    Shelby         
 3 02FB16… Bibb Correctional Faci… State prison    Brent         Bibb           
 4 6378F6… Birmingham Women's Com… State prison    Birmingham    Jefferson      
 5 EAABF9… Bullock Correctional F… State prison    Bessemer      Bullock        
 6 D19A24… Camden prison           State prison    Camden        Wilcox         
 7 F80A4A… Childersburg prison     State prison    Childersburg  Talladega      
 8 F119AF… William E. Donaldson C… State prison    Bessemer      Jefferson      
 9 41B5BD… Draper Correctional Fa… State prison    Elmore        Elmore         
10 9C1D51… Easterling Correctiona… State prison    Cilo          Barbour        
# … with 2,629 more rows, and 11 more variables: facility_county_fips <chr>,
#   facility_state <chr>, facility_lng <dbl>, facility_lat <dbl>,
#   latest_inmate_population <dbl>, max_inmate_population_2020 <dbl>,
#   total_inmate_cases <dbl>, total_inmate_deaths <dbl>,
#   total_officer_cases <dbl>, total_officer_deaths <dbl>, note <chr>
```
…
